%YAML 1.1
%TAG !u! tag:unity3d.com,2011:
--- !u!1045 &1
EditorBuildSettings:
  m_ObjectHideFlags: 0
  serializedVersion: 2
  m_Scenes:
  - enabled: 1
    path: Assets/Scenes/Main Menu.unity
    guid: 375c9285181288947bd36c3b3196abaf
  - enabled: 1
    path: Assets/Scenes/GameScene.unity
    guid: 27b9751e752472a40b1e1eeab859e437
  m_configObjects:
    com.unity.addressableassets: {fileID: 11400000, guid: 22a6310b81992664a93850e11b787027, type: 2}
