%YAML 1.1
%TAG !u! tag:unity3d.com,2011:
--- !u!114 &11400000
MonoBehaviour:
  m_ObjectHideFlags: 0
  m_CorrespondingSourceObject: {fileID: 0}
  m_PrefabInstance: {fileID: 0}
  m_PrefabAsset: {fileID: 0}
  m_GameObject: {fileID: 0}
  m_Enabled: 1
  m_EditorHideFlags: 0
  m_Script: {fileID: 11500000, guid: bbb281ee3bf0b054c82ac2347e9e782c, type: 3}
  m_Name: Default Local Group
  m_EditorClassIdentifier: 
  m_GroupName: Default Local Group
  m_Data:
    m_SerializedData: []
  m_GUID: 32e758f0f77cc6740a58fe127f3836e7
  m_SerializeEntries:
  - m_GUID: 52133f305421b2d4cbfc4fd9114e33ed
    m_Address: Assets/Prefabs/Game/Walls/TestWallSegment.prefab
    m_ReadOnly: 0
    m_SerializedLabels: []
  - m_GUID: de72b6483a21bfc4e88f23327f76c5aa
    m_Address: Assets/Prefabs/Game/Entities/Spawn.prefab
    m_ReadOnly: 0
    m_SerializedLabels: []
  - m_GUID: ab15c4aff3cc5814185b360f0c4aaaf9
    m_Address: Assets/Prefabs/Game/TilemapVisual.prefab
    m_ReadOnly: 0
    m_SerializedLabels: []
  m_ReadOnly: 0
  m_Settings: {fileID: 11400000, guid: 6330ef5090dcd0047a53b0fd4c5e83ae, type: 2}
  m_SchemaSet:
    m_Schemas:
    - {fileID: 11400000, guid: 35f9f84501006534ba3bde56053c19de, type: 2}
    - {fileID: 11400000, guid: fe355a4bbebeb21468dca08782d99161, type: 2}
