%YAML 1.1
%TAG !u! tag:unity3d.com,2011:
--- !u!21 &2100000
Material:
  serializedVersion: 6
  m_ObjectHideFlags: 0
  m_CorrespondingSourceObject: {fileID: 0}
  m_PrefabInstance: {fileID: 0}
  m_PrefabAsset: {fileID: 0}
  m_Name: Tank_Gradient
  m_Shader: {fileID: 4800000, guid: bee44b4a58655ee4cbff107302a3e131, type: 3}
  m_ShaderKeywords: DR_CEL_EXTRA_ON DR_RIM_ON _CELPRIMARYMODE_STEPS _FLAT_RIM_ENABLED
    _FLAT_SHADOWS_ENABLED _FLAT_SPECULAR_ENABLED _TEXTUREBLENDINGMODE_MULTIPLY _UNITYSHADOWMODE_MULTIPLY
  m_LightmapFlags: 4
  m_EnableInstancingVariants: 0
  m_DoubleSidedGI: 1
  m_CustomRenderQueue: 2000
  stringTagMap:
    RenderType: Opaque
  disabledShaderPasses: []
  m_SavedProperties:
    serializedVersion: 3
    m_TexEnvs:
    - _BaseMap:
        m_Texture: {fileID: 2800000, guid: bb9bf5fced99d04468c026887ed6fb61, type: 3}
        m_Scale: {x: 1, y: 1}
        m_Offset: {x: 0, y: 0}
    - _BumpMap:
        m_Texture: {fileID: 0}
        m_Scale: {x: 1, y: 1}
        m_Offset: {x: 0, y: 0}
    - _CelCurveTexture:
        m_Texture: {fileID: 2800000, guid: 2ec5a7675fdd73c40affb05efe38176b, type: 3}
        m_Scale: {x: 1, y: 1}
        m_Offset: {x: 0, y: 0}
    - _CelStepTexture:
        m_Texture: {fileID: 2800000, guid: 5befe3104e3112a4d99bae7db688991d, type: 3}
        m_Scale: {x: 1, y: 1}
        m_Offset: {x: 0, y: 0}
    - _DetailAlbedoMap:
        m_Texture: {fileID: 0}
        m_Scale: {x: 0, y: 0}
        m_Offset: {x: 0, y: 0}
    - _DetailMask:
        m_Texture: {fileID: 0}
        m_Scale: {x: 1, y: 1}
        m_Offset: {x: 0, y: 0}
    - _DetailNormalMap:
        m_Texture: {fileID: 0}
        m_Scale: {x: 1, y: 1}
        m_Offset: {x: 0, y: 0}
    - _EmissionMap:
        m_Texture: {fileID: 0}
        m_Scale: {x: 30, y: 15}
        m_Offset: {x: 1.5, y: 1.7}
    - _MainTex:
        m_Texture: {fileID: 0}
        m_Scale: {x: 1, y: 1}
        m_Offset: {x: 0, y: 0}
    - _MetallicGlossMap:
        m_Texture: {fileID: 0}
        m_Scale: {x: 1, y: 1}
        m_Offset: {x: 0, y: 0}
    - _OcclusionMap:
        m_Texture: {fileID: 0}
        m_Scale: {x: 1, y: 1}
        m_Offset: {x: 0, y: 0}
    - _ParallaxMap:
        m_Texture: {fileID: 0}
        m_Scale: {x: 1, y: 1}
        m_Offset: {x: 0, y: 0}
    m_Floats:
    - _AlphaClip: 0
    - _Blend: 0
    - _BumpScale: 1
    - _CelExtraEnabled: 1
    - _CelNumSteps: 4
    - _CelPrimaryMode: 2
    - _Cull: 0
    - _Cutoff: 0.5
    - _DetailNormalMapScale: 1
    - _DstBlend: 0
    - _FlatRimAmount: 0.5
    - _FlatRimEdgeSmoothness: 1
    - _FlatRimEnabled: 1
    - _FlatRimLightAlign: 1
    - _FlatRimSize: 0
    - _FlatShadowsEnabled: 1
    - _FlatSmoothness: 0.362
    - _FlatSpecularEdgeSmoothness: 1
    - _FlatSpecularEnabled: 1
    - _FlatSpecularSize: 0.755
    - _FlatSpecularSmoothness: 0.5
    - _Flatness: 1
    - _FlatnessExtra: 1
    - _FlatnessSecondary: 1
    - _GlossMapScale: 1
    - _Glossiness: 0
    - _GlossyReflections: 1
    - _GradientAngle: 27
    - _GradientBottom: 0
    - _GradientCenterX: -20
    - _GradientCenterY: 0
    - _GradientEnabled: 0
    - _GradientEnd: 0.55
    - _GradientSize: 10
    - _GradientStart: 1.17
    - _GradientTop: 10
    - _LightContribution: 0.5
    - _LightFalloffSize: 0.0001
    - _LightmapDirectionPitch: 0
    - _LightmapDirectionYaw: 0
    - _Metallic: 0
    - _Mode: 0
    - _OcclusionStrength: 1
    - _OverrideLightmapDir: 0
    - _OverrideShadows: 1
    - _OverrideShadowsEnabled: 1
    - _Parallax: 0.02
    - _QueueOffset: 0
    - _RimEnabled: 1
    - _SecondaryColor: 1
    - _SecondaryColorEnabled: 1
    - _SelfShadingSize: 0.491
    - _SelfShadingSizeExtra: 0.422
    - _ShadowEdgeSize: 0.021
    - _ShadowEdgeSizeExtra: 0.376
    - _ShadowEdgeSmoothness: 0.01
    - _ShadowFalloff: 0.01
    - _SmoothnessTextureChannel: 0
    - _SpecularEnabled: 0
    - _SpecularHighlights: 1
    - _SrcBlend: 1
    - _Surface: 0
    - _TextureBlendingMode: 0
    - _TextureImpact: 1
    - _UVSec: 0
    - _UnityShadowMode: 1
    - _UnityShadowPower: 1
    - _UnityShadowSharpness: 1
    - _VertexColorsEnabled: 0
    - _ZWrite: 1
    m_Colors:
    - _BaseColor: {r: 1, g: 1, b: 1, a: 1}
    - _Color: {r: 1, g: 0.6618828, b: 0.26886788, a: 1}
    - _ColorCelShadow: {r: 0.38581347, g: 0.38787434, b: 0.9622642, a: 1}
    - _ColorDim: {r: 0.8584906, g: 0.42607445, b: 0.26321644, a: 1}
    - _ColorDimCurve: {r: 0.85, g: 0.85, b: 0.85, a: 0.85}
    - _ColorDimExtra: {r: 0, g: 0, b: 0, a: 0.85}
    - _ColorDimSteps: {r: 0.85, g: 0.85, b: 0.85, a: 0.85}
    - _ColorGradient: {r: 0.009433985, g: 0.009433985, b: 0.009433985, a: 1}
    - _ColorSecondary: {r: 1, g: 0.55879205, b: 0, a: 1}
    - _ColorShadow: {r: 0.5, g: 0.5, b: 0.5, a: 1}
    - _ColorShadows: {r: 0.37835297, g: 0.4602353, b: 0.72, a: 1}
    - _EmissionColor: {r: 4.9245777, g: 0, b: 0, a: 1}
    - _FlatRimColor: {r: 0, g: 0, b: 0, a: 1}
    - _FlatSpecularColor: {r: 1, g: 1, b: 1, a: 1}
    - _LightmapDirection: {r: 0, g: 1, b: 0, a: 0}
    - _UnityShadowColor: {r: 0, g: 0, b: 0, a: 1}
  m_BuildTextureStacks: []
